<svg xmlns="http://www.w3.org/2000/svg" viewBox="0 0 11970 11486">
  <g>
    <path d="M11166 8526c0-346-97-673-268-968-455-790-1448-1339-2603-1339-1585 0-2870 1033-2870 2307 0 395 124 766 341 1091 484 724 1435 1217 2528 1217 257 0 506-28 743-79 1101 1056 2061 658 2061 658-452-452-641-924-712-1308 482-412 778-968 778-1579m1 0z"/>
    <path d="M8295 5814c1245 0 2327 554 2892 1371 496-701 783-1510 783-2374C11970 2154 9291 0 5985 0S0 2154 0 4811c0 1274 617 2432 1624 3293-149 800-543 1784-1485 2726 0 0 2001 833 4298-1372 276 59 560 101 850 127-193-338-302-714-302-1110 0-1470 1483-2661 3311-2661m-1 0z"/>
  </g>
</svg>
