<svg xmlns="http://www.w3.org/2000/svg" viewBox="0 0 20997 13125">
  <path d="M10559 0C3931 0 0 6563 0 6563s3934 6562 10559 6562c6497 0 10438-6562 10438-6562S17053 0 10559 0m-62 1969c2559 0 4594 2034 4594 4594 0 2559-2034 4594-4594 4594-2559 0-4594-2034-4594-4594 0-2559 2034-4594 4594-4594m0 1969c-1444 0-2625 1181-2625 2625s1181 2625 2625 2625 2625-1181 2625-2625c0-394-74-718-205-1046-197 263-452 390-780 390-525 0-984-459-984-984 0-328 127-583 390-780-328-131-652-205-1046-205m1 1z"/>
</svg>
