<svg xmlns="http://www.w3.org/2000/svg" viewBox="0 0 19304 14820">
  <g>
    <path d="M11470 11098c-1407 0-2046-1205-2100-1310-56-104-84-763 102-930 1093-1093 1582-2298 1630-2852 112-1308 85-1889 0-2741-153-1547-1957-2774-3733-2778h-8c-1776 4-3579 1232-3733 2777-84 853-112 1432 0 2741 48 553 538 1759 1630 2852 186 167 158 827 102 930-55 105-694 1310-2100 1310-1408 0-3259 75-3259 1594 0 1517 2035 2128 7361 2129h8c5327 0 7360-612 7360-2129 0-1518-1853-1593-3261-1593m2 0z"/>
    <path d="M16544 8967c-1190 0-1729-1020-1776-1108s-70-646 86-787c923-923 1336-1941 1377-2410 95-1106 71-1596 0-2316C16102 1041 14577 3 13081 0h-7c-755 2-1516 267-2100 695 811 753 1365 2269 1365 4020 0 2306-960 4200-2201 4486 104-3 207-12 311-12 2545 0 4702 1182 5472 2823 2407-204 3384-735 3384-1701 0-1282-1565-1344-2754-1344m-6-1z"/>
  </g>
</svg>
