<svg xmlns="http://www.w3.org/2000/svg" viewBox="0 0 100 100">
  <circle cx="50.001" cy="55.321" r="13.3"/>
  <path d="M87.604 26.445H12.397c-2.76 0-5 2.24-5 5v47.752c0 2.762 2.24 5 5 5h75.206c2.762 0 5-2.238 5-5V31.445c0-2.76-2.238-5-5-5zM50 72.605c-9.543 0-17.283-7.74-17.283-17.285 0-9.544 7.74-17.283 17.284-17.283 9.546 0 17.284 7.738 17.284 17.283 0 9.545-7.738 17.285-17.283 17.285z"/>
  <path d="M66.804 26.282c0 2.76-3.404 5-7.598 5H40.794c-4.194 0-7.596-2.24-7.596-5v-3.798c0-2.762 3.4-5 7.596-5h18.412c4.193 0 7.598 2.238 7.598 5v3.798z"/>
</svg>
