<svg xmlns="http://www.w3.org/2000/svg" viewBox="0 0 21000 4773">
    <path d="M2386 4773c1318 0 2386-1068 2386-2386S3704 1 2386 1 0 1069 0 2387s1068 2386 2386 2386m8114 0c1318 0 2386-1068 2386-2386S11818 1 10500 1 8114 1069 8114 2387s1068 2386 2386 2386m8114 0c1318 0 2386-1068 2386-2386S19932 1 18614 1s-2386 1068-2386 2386 1068 2386 2386 2386z"/>
</svg>
