<svg xmlns="http://www.w3.org/2000/svg" viewBox="0 0 100 84.841">
  <path d="M69.728 84.84H10.156C4.556 84.84 0 80.053 0 74.16V17.754C0 11.865 4.557 7.075 10.156 7.075h56.546L41.22 17.877H10.158l.226 56.282 59.344-.126-.227-7.604 10.39-8.042V74.16c0 5.892-4.557 10.68-10.162 10.68z"/>
  <path d="M69.345 57.824l-.074-17.05c-24.257-.156-42.383 14.103-42.383 14.103s2.872-31.54 42.458-39.316V0L100 28.934 85.094 42.96l-15.75 14.864z"/>
</svg>
